…
## $ tailnum : chr [1:336776] "N14228" "N24211" "N619AA" "N804JB
" ...
## $ origin : chr [1:336776] "EWR" "LGA" "JFK" "JFK" ...
## $ dest : chr [1:336776] "IAH" "IAH" "MIA" "BQN" ...
## $ air_time : num [1:336776] 227 227 160 183 116 150 158 53 140
138 ...
## $ distance : num [1:336776] 1400 1416 1089 1576 762 ...
## $ hour : num [1:336776] 5 5 5 5 6 5 6 6 6 6 ...
## $ minute : num [1:336776] 15 29 40 45 0 58 0 0 0 0 ...
## $ time_hour : POSIXct[1:336776], format: "2013-01-01 05:00:00"
"2013-01-01 05:00:00" ...
#attach(flights)
jan<-filter(flights,month==1)
jan
## # A tibble: 27,004 × 19
## year month day dep_time sched_dep_time dep_delay arr_time sche
d_arr_time
## <int> <int> <int> <int> <int> <dbl> <int>
<int>
## 1 2013 1 1 517 515 2 830
819
## 2 2013 1 1 533 529 4 850
830
## 3 2013 1 1 542 540 2 923
850
## 4 2013 1 1 544 545 -1 1004
1022
## 5 2013 1 1 554 600 -6 812
837
## 6 2013 1 1 554 558 -4 740
728
## 7 2013 1 1 555 600 -5 913
854
## 8 2013 1 1 557 600 -3 709
723
## 9 2013 1 1 557 600 -3 838
846
## 10 2013 1 1 558 600 -2 753
745
## # ℹ 26,994 more rows
## # ℹ 11 more variables: arr_delay <dbl>, carrier <chr>, flight <int>,
## # tailnum <chr>, origin <chr>, dest <chr>, air_time <dbl>, distanc
e <dbl>,
## # hour <dbl>, minute <dbl>, time_hour <dttm>
newyear<-filter(flights,month==1, day==1)
newyear
## # A tibble: 842 × 19
## year month day dep_time sched_dep_time dep_delay arr_time sche
d_arr_time
## <int> <int> <int> <int> <int> <dbl> <int>
<int>
## 1 2013 1 1 517 515 2 830
819
## 2 2013 1 1 533 529 4 850
830
## 3 2013 1 1 542 540 2 923
850
## 4 2013 1 1 544 545 -1 1004
1022
## 5 2013 1 1 554 600 -6 812
837
## 6 2013 1 1 554 558 -4 740
728
## 7 2013 1 1 555 600 -5 913
854
## 8 2013 1 1 557 600 -3 709
723
## 9 2013 1 1 557 600 -3 838
846
## 10 2013 1 1 558 600 -2 753
745
## # ℹ 832 more rows
## # ℹ 11 more variables: arr_delay <dbl>, carrier <chr>, flight <int>,
## # tailnum <chr>, origin <chr>, dest <chr>, air_time <dbl>, distanc
e <dbl>,
## # hour <dbl>, minute <dbl>, time_hour <dttm>
dec25<-filter(flights,month==12, day==25)
dec25
## # A tibble: 719 × 19
## year month day dep_time sched_dep_time dep_delay arr_time sche
d_arr_time
## <int> <int> <int> <int> <int> <dbl> <int>
<int>
## 1 2013 12 25 456 500 -4 649
651
## 2 2013 12 25 524 515 9 805
814
## 3 2013 12 25 542 540 2 832
850
## 4 2013 12 25 546 550 -4 1022
1027
## 5 2013 12 25 556 600 -4 730
745
## 6 2013 12 25 557 600 -3 743
752
## 7 2013 12 25 557 600 -3 818
831
## 8 2013 12 25 559 600 -1 855
856
## 9 2013 12 25 559 600 -1 849
855
## 10 2013 12 25 600 600 0 850
846
## # ℹ 709 more rows
## # ℹ 11 more variables: arr_delay <dbl>, carrier <chr>, flight <int>,
## # tailnum <chr>, origin <chr>, dest <chr>, air_time <dbl>, distanc
e <dbl>,
## # hour <dbl>, minute <dbl>, time_hour <dttm>
jan_dec<-filter(flights,month==1|month==12)
jan_dec
## # A tibble: 55,139 × 19
## year month day dep_time sched_dep_time dep_delay arr_time sche
d_arr_time
## <int> <int> <int> <int> <int> <dbl> <int>
<int>
## 1 2013 1 1 517 515 2 830
819
## 2 2013 1 1 533 529 4 850
830
## 3 2013 1 1 542 540 2 923
850
## 4 2013 1 1 544 545 -1 1004
1022
## 5 2013 1 1 554 600 -6 812
837
## 6 2013 1 1 554 558 -4 740
728
## 7 2013 1 1 555 600 -5 913
854
## 8 2013 1 1 557 600 -3 709
723
## 9 2013 1 1 557 600 -3 838
846
## 10 2013 1 1 558 600 -2 753
745
## # ℹ 55,129 more rows
## # ℹ 11 more variables: arr_delay <dbl>, carrier <chr>, flight <int>,
## # tailnum <chr>, origin <chr>, dest <chr>, air_time <dbl>, distanc
e <dbl>,
## # hour <dbl>, minute <dbl>, time_hour <dttm>
nov_dec<-filter(flights,month %in% c(11,12))
#detach(flights)
```

#### The function arrange()
This change the order

```{r}
data_10<-arrange(flights,year,month,day)
arrange(flights,desc(arr_delay))
## # A tibble: 336,776 × 19
## year month day dep_time sched_dep_time dep_delay arr_time sche
d_arr_time
## <int> <int> <int> <int> <int> <dbl> <int>
<int>
## 1 2013 1 9 641 900 1301 1242
1530
## 2 2013 6 15 1432 1935 1137 1607
2120
## 3 2013 1 10 1121 1635 1126 1239
1810
## 4 2013 9 20 1139 1845 1014 1457
2210
## 5 2013 7 22 845 1600 1005 1044
1815
## 6 2013 4 10 1100 1900 960 1342
2211
## 7 2013 3 17 2321 810 911 135
1020
## 8 2013 7 22 2257 759 898 121
1026
## 9 2013 12 5 756 1700 896 1058
2020
## 10 2013 5 3 1133 2055 878 1250
2215
## # ℹ 336,766 more rows
## # ℹ 11 more variables: arr_delay <dbl>, carrier <chr>, flight <int>,
## # tailnum <chr>, origin <chr>, dest <chr>, air_time <dbl>, distanc
e <dbl>,
## # hour <dbl>, minute <dbl>, time_hour <dttm>
```

#### The function select
This helps to selects only the variables you are interested in
```{r}
time_var<-select(flights, year,month, day)
select(flights, year:day)
## # A tibble: 336,776 × 3
## year month day
## <int> <int> <int>
## 1 2013 1 1
## 2 2013 1 1
## 3 2013 1 1
## 4 2013 1 1
## 5 2013 1 1
## 6 2013 1 1
## 7 2013 1 1
## 8 2013 1 1
## 9 2013 1 1
## 10 2013 1 1
## # ℹ 336,766 more rows
…
#### The function mutate
This is useful in adding a new Variable
```{r}
## create a small data set
flights2<-select(flights,year:day,ends_with("delay"),distance,air_time)(mutate(flights2,gain=arr_delay-dep_delay,speed=distance/air_time*60))
## # A tibble: 336,776 × 9
## year month day dep_delay arr_delay distance air_time gain speed
## <int> <int> <int> <dbl> <dbl> <dbl> <dbl> <dbl> <dbl>
## 1 2013 1 1 2 11 1400 227 9 370.
## 2 2013 1 1 4 20 1416 227 16 374.
## 3 2013 1 1 2 33 1089 160 31 408.
## 4 2013 1 1 -1 -18 1576 183 -17 517.
## 5 2013 1 1 -6 -25 762 116 -19 394.
## 6 2013 1 1 -4 12 719 150 16 288.
## 7 2013 1 1 -5 19 1065 158 24 404.
## 8 2013 1 1 -3 -14 229 53 -11 259.
## 9 2013 1 1 -3 -8 944 140 -5 405.
## 10 2013 1 1 -2 8 733 138 10 319.
## # ℹ 336,766 more rows
```
